…
*Let’s combine the individual datasets into one larger dataset for full
analysis*

``` r
bike_trips_2023 <- bind_rows(X202301_divvy_tripdata, X202302_divvy_tripdata, X202303_divvy_tripdata, X202304_divvy_tripdata,X202305_divvy_tripdata, X202306_divvy_tripdata,X202307_divvy_tripdata, X202308_divvy_tripdata, X202309_divvy_tripdata,X202310_divvy_tripdata, X202311_divvy_tripdata, X202312_divvy_tripdata)
```

*Quick overview of the combined dataset*

``` r
print(bike_trips_2023)
```

    ## # A tibble: 5,719,877 × 13
    ##    ride_id          rideable_type started_at          ended_at           
    ##    <chr>            <chr>         <dttm>              <dttm>             
    ##  1 F96D5A74A3E41399 electric_bike 2023-01-21 20:05:42 2023-01-21 20:16:33
    ##  2 13CB7EB698CEDB88 classic_bike  2023-01-10 15:37:36 2023-01-10 15:46:05
    ##  3 BD88A2E670661CE5 electric_bike 2023-01-02 07:51:57 2023-01-02 08:05:11
    ##  4 C90792D034FED968 classic_bike  2023-01-22 10:52:58 2023-01-22 11:01:44
    ##  5 3397017529188E8A classic_bike  2023-01-12 13:58:01 2023-01-12 14:13:20
    ##  6 58E68156DAE3E311 electric_bike 2023-01-31 07:18:03 2023-01-31 07:21:16
    ##  7 2F7194B6012A98D4 electric_bike 2023-01-15 21:18:36 2023-01-15 21:32:36
    ##  8 DB1CF84154D6A049 classic_bike  2023-01-25 10:49:01 2023-01-25 10:58:22
    ##  9 34EAB943F88C4C5D electric_bike 2023-01-25 20:49:47 2023-01-25 21:02:14
    ## 10 BC8AB1AA51DA9115 classic_bike  2023-01-06 16:37:19 2023-01-06 16:49:52
    ## # ℹ 5,719,867 more rows
    ## # ℹ 9 more variables: start_station_name <chr>, start_station_id <chr>,
    ## #   end_station_name <chr>, end_station_id <chr>, start_lat <dbl>,
    ## #   start_lng <dbl>, end_lat <dbl>, end_lng <dbl>, member_casual <chr>
…
*Lets make a new column called ‘day_of_week’*

``` r
bike_trips_2023 <- bike_trips_2023 %>%
  mutate(day_of_week= wday(bike_trips_2023$started_at, label=TRUE, abbr= TRUE))

bike_trips_2023  # Print the dataframe
```

    ## # A tibble: 5,719,877 × 14
    ##    ride_id          rideable_type started_at          ended_at           
    ##    <chr>            <chr>         <dttm>              <dttm>             
    ##  1 F96D5A74A3E41399 electric_bike 2023-01-21 20:05:42 2023-01-21 20:16:33
    ##  2 13CB7EB698CEDB88 classic_bike  2023-01-10 15:37:36 2023-01-10 15:46:05
    ##  3 BD88A2E670661CE5 electric_bike 2023-01-02 07:51:57 2023-01-02 08:05:11
    ##  4 C90792D034FED968 classic_bike  2023-01-22 10:52:58 2023-01-22 11:01:44
    ##  5 3397017529188E8A classic_bike  2023-01-12 13:58:01 2023-01-12 14:13:20
    ##  6 58E68156DAE3E311 electric_bike 2023-01-31 07:18:03 2023-01-31 07:21:16
    ##  7 2F7194B6012A98D4 electric_bike 2023-01-15 21:18:36 2023-01-15 21:32:36
    ##  8 DB1CF84154D6A049 classic_bike  2023-01-25 10:49:01 2023-01-25 10:58:22
    ##  9 34EAB943F88C4C5D electric_bike 2023-01-25 20:49:47 2023-01-25 21:02:14
    ## 10 BC8AB1AA51DA9115 classic_bike  2023-01-06 16:37:19 2023-01-06 16:49:52
    ## # ℹ 5,719,867 more rows
    ## # ℹ 10 more variables: start_station_name <chr>, start_station_id <chr>,
    ## #   end_station_name <chr>, end_station_id <chr>, start_lat <dbl>,
    ## #   start_lng <dbl>, end_lat <dbl>, end_lng <dbl>, member_casual <chr>,
    ## #   day_of_week <ord>

*Now let’s calculate the ride length in seconds by subtracting ended_at
from started_at*

``` r
bike_trips_2023 <- bike_trips_2023 %>%
  mutate(ride_length = ended_at - started_at)

bike_trips_2023 #print the dataset
```

    ## # A tibble: 5,719,877 × 15
    ##    ride_id          rideable_type started_at          ended_at           
    ##    <chr>            <chr>         <dttm>              <dttm>             
    ##  1 F96D5A74A3E41399 electric_bike 2023-01-21 20:05:42 2023-01-21 20:16:33
    ##  2 13CB7EB698CEDB88 classic_bike  2023-01-10 15:37:36 2023-01-10 15:46:05
    ##  3 BD88A2E670661CE5 electric_bike 2023-01-02 07:51:57 2023-01-02 08:05:11
    ##  4 C90792D034FED968 classic_bike  2023-01-22 10:52:58 2023-01-22 11:01:44
    ##  5 3397017529188E8A classic_bike  2023-01-12 13:58:01 2023-01-12 14:13:20
    ##  6 58E68156DAE3E311 electric_bike 2023-01-31 07:18:03 2023-01-31 07:21:16
    ##  7 2F7194B6012A98D4 electric_bike 2023-01-15 21:18:36 2023-01-15 21:32:36
    ##  8 DB1CF84154D6A049 classic_bike  2023-01-25 10:49:01 2023-01-25 10:58:22
    ##  9 34EAB943F88C4C5D electric_bike 2023-01-25 20:49:47 2023-01-25 21:02:14
    ## 10 BC8AB1AA51DA9115 classic_bike  2023-01-06 16:37:19 2023-01-06 16:49:52
    ## # ℹ 5,719,867 more rows
    ## # ℹ 11 more variables: start_station_name <chr>, start_station_id <chr>,
    ## #   end_station_name <chr>, end_station_id <chr>, start_lat <dbl>,
    ## #   start_lng <dbl>, end_lat <dbl>, end_lng <dbl>, member_casual <chr>,
    ## #   day_of_week <ord>, ride_length <drtn>
…
is.numeric(bike_trips_2023$ride_length)
```

    ## [1] TRUE

*Let’s remove any negative and 0 values from ride_length*

``` r
cleaned_bike_trips_2023 <- bike_trips_2023[!(bike_trips_2023$ride_length <0),]

cleaned_bike_trips_2023 #prints the dataset
```

    ## # A tibble: 5,719,605 × 15
    ##    ride_id          rideable_type started_at          ended_at           
    ##    <chr>            <chr>         <dttm>              <dttm>             
    ##  1 F96D5A74A3E41399 electric_bike 2023-01-21 20:05:42 2023-01-21 20:16:33
    ##  2 13CB7EB698CEDB88 classic_bike  2023-01-10 15:37:36 2023-01-10 15:46:05
    ##  3 BD88A2E670661CE5 electric_bike 2023-01-02 07:51:57 2023-01-02 08:05:11
    ##  4 C90792D034FED968 classic_bike  2023-01-22 10:52:58 2023-01-22 11:01:44
    ##  5 3397017529188E8A classic_bike  2023-01-12 13:58:01 2023-01-12 14:13:20
    ##  6 58E68156DAE3E311 electric_bike 2023-01-31 07:18:03 2023-01-31 07:21:16
    ##  7 2F7194B6012A98D4 electric_bike 2023-01-15 21:18:36 2023-01-15 21:32:36
    ##  8 DB1CF84154D6A049 classic_bike  2023-01-25 10:49:01 2023-01-25 10:58:22
    ##  9 34EAB943F88C4C5D electric_bike 2023-01-25 20:49:47 2023-01-25 21:02:14
    ## 10 BC8AB1AA51DA9115 classic_bike  2023-01-06 16:37:19 2023-01-06 16:49:52
    ## # ℹ 5,719,595 more rows
    ## # ℹ 11 more variables: start_station_name <chr>, start_station_id <chr>,
    ## #   end_station_name <chr>, end_station_id <chr>, start_lat <dbl>,
    ## #   start_lng <dbl>, end_lat <dbl>, end_lng <dbl>, member_casual <chr>,
    ## #   day_of_week <ord>, ride_length <dbl>
…
